[
  {
    "title": "Banana",
    "description": "Stet clita kasd gubergren, no sea takimata sanctus est Lorem ipsum dolor sit amet",
    "image": "https://picsum.photos/110",
    "category": "Exotic"
  },{
    "title": "Strawberry",
    "description": "Lorem ipsum dolor sit amet, consetetur sadipscing elitr",
    "image": "https://picsum.photos/111",
    "category": "Berries"
  },
  {
    "title": "Pineapple",
    "description": "Stet clita kasd gubergren, no sea takimata sanctus est Lorem ipsum dolor sit amet",
    "image": "https://picsum.photos/112",
    "category": "Exotic"
  },
  {
    "title": "Apple",
    "description": "Invidunt ut labore et dolore magna aliquyam erat, sed diam voluptua",
    "image": "https://picsum.photos/113",
    "category": "Pome"
  },
  {
    "title": "Blueberry",
    "description": "Duis autem vel eum iriure dolor in hendrerit in vulputate velit esse molestie consequat",
    "image": "https://picsum.photos/114",
    "category": "Berries"
  },
  {
    "title": "Pear",
    "description": "Invidunt ut labore et dolore magna aliquyam erat, sed diam voluptua",
    "image": "https://picsum.photos/115",
    "category": "Pome"
  },
  {
    "title": "Quince",
    "description": "Lorem ipsum dolor sit amet, consetetur sadipscing elitr",
    "image": "https://picsum.photos/115",
    "category": "Pome"
  },
  {
    "title": "Mango",
    "description": "Duis autem vel eum iriure dolor in hendrerit in vulputate velit esse molestie consequat",
    "image": "https://picsum.photos/116",
    "category": "Exotic"
  },
  {
    "title": "Orange",
    "description": "Lorem ipsum dolor sit amet, consetetur sadipscing elitr",
    "image": "https://picsum.photos/117",
    "category": "Citrus"
  },
  {
    "title": "Plum",
    "description": "Duis autem vel eum iriure dolor in hendrerit in vulputate velit esse molestie consequat.",
    "image": "https://picsum.photos/118",
    "category": "Stone Fruit"
  },
  {
    "title": "Lemon",
    "description": "Praesent luptatum zzril delenit augue duis dolore te feugait nulla facilisi",
    "image": "https://picsum.photos/119",
    "category": "Citrus"
  },
  {
    "title": "Peach",
    "description": "Hendrerit in vulputate velit esse molestie consequat, vel illum dolore eu feugiat nulla",
    "image": "https://picsum.photos/120",
    "category": "Stone Fruit"
  },
  {
    "title": "Raspberry",
    "description": "Invidunt ut labore et dolore magna aliquyam erat, sed diam voluptua",
    "image": "https://picsum.photos/121",
    "category": "Berries"
  },
  {
    "title": "Grapefruit",
    "description": "Consetetur sadipscing elitr, sed diam nonumy eirmod tempor",
    "image": "https://picsum.photos/122",
    "category": "Citrus"
  },
  {
    "title": "Apricot",
    "description": "At vero eos et accusam et justo duo dolores et ea rebum",
    "image": "https://picsum.photos/123",
    "category": "Stone Fruit"
  },
  {
    "title": "Cherry",
    "description": "Lorem ipsum dolor sit amet, consetetur sadipscing elitr",
    "image": "https://picsum.photos/124",
    "category": "Stone Fruit"
  },
  {
    "title": "Currant",
    "description": "At vero eos et accusam et justo duo dolores et ea rebum",
    "image": "https://picsum.photos/125",
    "category": "Berries"
  },
  {
    "title": "Kiwi",
    "description": "Eros et accumsan et iusto odio dignissim qui blandit praesent luptatum zzril delenit",
    "image": "https://picsum.photos/126",
    "category": "Exotic"
  },
  {
    "title": "Papaya",
    "description": "Vel eum iriure dolor in hendrerit in vulputate velit esse molestie consequat, vel illum",
    "image": "https://picsum.photos/127",
    "category": "Exotic"
  }
]